<svg width="12" height="12" viewBox="0 0 12 12" fill="none" xmlns="http://www.w3.org/2000/svg">
<path fill-rule="evenodd" clip-rule="evenodd" d="M10.2516 1.7439C9.12356 0.619922 7.62334 0.000659179 6.0251 0C2.73175 0 0.0514425 2.66741 0.0501177 5.94587C0.0496762 6.9939 0.324772 8.01694 0.84766 8.9187L0 12L3.16743 11.1731C4.04018 11.6469 5.02274 11.8966 6.02267 11.8969H6.02517C9.31815 11.8969 11.9987 9.22925 12 5.95063C12.0007 4.36172 11.3797 2.8678 10.2516 1.7439ZM6.0251 10.8927H6.02304C5.13195 10.8923 4.25802 10.654 3.49544 10.2037L3.31417 10.0966L1.43457 10.5873L1.93627 8.7635L1.81815 8.57651C1.32102 7.7896 1.05851 6.88008 1.05895 5.94624C1.05998 3.22126 3.28783 1.0043 6.02708 1.0043C7.35355 1.00474 8.60046 1.51948 9.53805 2.45369C10.4756 3.38789 10.9917 4.62964 10.9912 5.95027C10.9901 8.67546 8.76236 10.8927 6.0251 10.8927ZM8.74912 7.19106C8.59987 7.11665 7.86584 6.75732 7.72895 6.70767C7.59221 6.65808 7.49257 6.6334 7.39314 6.78208C7.29357 6.93076 7.00751 7.26548 6.92037 7.36458C6.83324 7.46375 6.74625 7.4762 6.59692 7.40178C6.4476 7.32744 5.96659 7.17048 5.39631 6.66431C4.95253 6.27034 4.65293 5.78379 4.56579 5.63511C4.4788 5.48628 4.56506 5.41362 4.63129 5.33188C4.79291 5.13215 4.95474 4.92275 5.00449 4.82366C5.05431 4.72449 5.02936 4.6377 4.99198 4.56335C4.95474 4.48901 4.65617 3.75769 4.53179 3.46011C4.41051 3.17051 4.28753 3.20962 4.19583 3.20508C4.10885 3.20076 4.00927 3.19988 3.9097 3.19988C3.8102 3.19988 3.64844 3.23701 3.51155 3.38584C3.37474 3.53459 2.98911 3.89399 2.98911 4.62532C2.98911 5.35664 3.52407 6.06314 3.59869 6.1623C3.67331 6.26148 4.65146 7.76221 6.14903 8.40571C6.50523 8.55894 6.78326 8.65027 7.00015 8.71875C7.35782 8.83184 7.68318 8.81587 7.94046 8.77764C8.22733 8.73494 8.82367 8.41816 8.94819 8.07114C9.07256 7.72405 9.07256 7.42661 9.03518 7.36458C8.99794 7.30261 8.89837 7.26548 8.74912 7.19106Z" fill="#ffffff"/>
</svg>
